[
  {
    "id": 1300029,
    "nome": "Alvarães",
    "microrregiao": {
      "id": 13005,
      "nome": "Tefé",
      "mesorregiao": {
        "id": 1303,
        "nome": "Centro Amazonense",
        "UF": {
          "id": 13,
          "sigla": "AM",
          "nome": "Amazonas",
          "regiao": {
            "id": 1,
            "sigla": "N",
            "nome": "Norte"
          }
        }
      }
    }
  },
  {
    "id": 1300060,
    "nome": "Amaturá",
    "microrregiao": {
      "id": 13003,
      "nome": "Alto Solimões",
      "mesorregiao": {
        "id": 1302,
        "nome": "Sudoeste Amazonense",
        "UF": {
          "id": 13,
          "sigla": "AM",
          "nome": "Amazonas",
          "regiao": {
            "id": 1,
            "sigla": "N",
            "nome": "Norte"
          }
        }
      }
    }
  },
  {
    "id": 1300086,
    "nome": "Anamã",
    "microrregiao": {
      "id": 13006,
      "nome": "Coari",
      "mesorregiao": {
        "id": 1303,
        "nome": "Centro Amazonense",
        "UF": {
          "id": 13,
          "sigla": "AM",
          "nome": "Amazonas",
          "regiao": {
            "id": 1,
            "sigla": "N",
            "nome": "Norte"
          }
        }
      }
    }
  }
]